<svg xmlns="http://www.w3.org/2000/svg" xmlns:xlink="http://www.w3.org/1999/xlink" width="80" height="80" viewBox="0 0 80 80">
<rect width="2.2" height="2.2"/>
<rect x="2.2" width="2.2" height="2.2"/>
<rect x="4.3" width="2.2" height="2.2"/>
<rect x="6.5" width="2.2" height="2.2"/>
<rect x="8.6" width="2.2" height="2.2"/>
<rect x="10.8" width="2.2" height="2.2"/>
<rect x="13" width="2.2" height="2.2"/>
<rect x="23.8" width="2.2" height="2.2"/>
<rect x="25.9" width="2.2" height="2.2"/>
<rect x="28.1" width="2.2" height="2.2"/>
<rect x="30.3" width="2.2" height="2.2"/>
<rect x="32.4" width="2.2" height="2.2"/>
<rect x="34.6" width="2.2" height="2.2"/>
<rect x="41.1" width="2.2" height="2.2"/>
<rect x="45.4" width="2.2" height="2.2"/>
<rect x="56.2" width="2.2" height="2.2"/>
<rect x="64.9" width="2.2" height="2.2"/>
<rect x="67" width="2.2" height="2.2"/>
<rect x="69.2" width="2.2" height="2.2"/>
<rect x="71.4" width="2.2" height="2.2"/>
<rect x="73.5" width="2.2" height="2.2"/>
<rect x="75.7" width="2.2" height="2.2"/>
<rect x="77.8" width="2.2" height="2.2"/>
<rect y="2.2" width="2.2" height="2.2"/>
<rect x="13" y="2.2" width="2.2" height="2.2"/>
<rect x="19.5" y="2.2" width="2.2" height="2.2"/>
<rect x="47.6" y="2.2" width="2.2" height="2.2"/>
<rect x="58.4" y="2.2" width="2.2" height="2.2"/>
<rect x="60.5" y="2.2" width="2.2" height="2.2"/>
<rect x="64.9" y="2.2" width="2.2" height="2.2"/>
<rect x="77.8" y="2.2" width="2.2" height="2.2"/>
<rect y="4.3" width="2.2" height="2.2"/>
<rect x="4.3" y="4.3" width="2.2" height="2.2"/>
<rect x="6.5" y="4.3" width="2.2" height="2.2"/>
<rect x="8.6" y="4.3" width="2.2" height="2.2"/>
<rect x="13" y="4.3" width="2.2" height="2.2"/>
<rect x="17.3" y="4.3" width="2.2" height="2.2"/>
<rect x="19.5" y="4.3" width="2.2" height="2.2"/>
<rect x="23.8" y="4.3" width="2.2" height="2.2"/>
<rect x="25.9" y="4.3" width="2.2" height="2.2"/>
<rect x="34.6" y="4.3" width="2.2" height="2.2"/>
<rect x="41.1" y="4.3" width="2.2" height="2.2"/>
<rect x="45.4" y="4.3" width="2.2" height="2.2"/>
<rect x="47.6" y="4.3" width="2.2" height="2.2"/>
<rect x="58.4" y="4.3" width="2.2" height="2.2"/>
<rect x="60.5" y="4.3" width="2.2" height="2.2"/>
<rect x="64.9" y="4.3" width="2.2" height="2.2"/>
<rect x="69.2" y="4.3" width="2.2" height="2.2"/>
<rect x="71.4" y="4.3" width="2.2" height="2.2"/>
<rect x="73.5" y="4.3" width="2.2" height="2.2"/>
<rect x="77.8" y="4.3" width="2.2" height="2.2"/>
<rect y="6.5" width="2.2" height="2.2"/>
<rect x="4.3" y="6.5" width="2.2" height="2.2"/>
<rect x="6.5" y="6.5" width="2.2" height="2.2"/>
<rect x="8.6" y="6.5" width="2.2" height="2.2"/>
<rect x="13" y="6.5" width="2.2" height="2.2"/>
<rect x="17.3" y="6.5" width="2.2" height="2.2"/>
<rect x="23.8" y="6.5" width="2.2" height="2.2"/>
<rect x="28.1" y="6.5" width="2.2" height="2.2"/>
<rect x="34.6" y="6.5" width="2.2" height="2.2"/>
<rect x="54.1" y="6.5" width="2.2" height="2.2"/>
<rect x="56.2" y="6.5" width="2.2" height="2.2"/>
<rect x="58.4" y="6.5" width="2.2" height="2.2"/>
<rect x="60.5" y="6.5" width="2.2" height="2.2"/>
<rect x="64.9" y="6.5" width="2.2" height="2.2"/>
<rect x="69.2" y="6.5" width="2.2" height="2.2"/>
<rect x="71.4" y="6.5" width="2.2" height="2.2"/>
<rect x="73.5" y="6.5" width="2.2" height="2.2"/>
<rect x="77.8" y="6.5" width="2.2" height="2.2"/>
<rect y="8.6" width="2.2" height="2.2"/>
<rect x="4.3" y="8.6" width="2.2" height="2.2"/>
<rect x="6.5" y="8.6" width="2.2" height="2.2"/>
<rect x="8.6" y="8.6" width="2.2" height="2.2"/>
<rect x="13" y="8.6" width="2.2" height="2.2"/>
<rect x="17.3" y="8.6" width="2.2" height="2.2"/>
<rect x="23.8" y="8.6" width="2.2" height="2.2"/>
<rect x="25.9" y="8.6" width="2.2" height="2.2"/>
<rect x="32.4" y="8.6" width="2.2" height="2.2"/>
<rect x="38.9" y="8.6" width="2.2" height="2.2"/>
<rect x="41.1" y="8.6" width="2.2" height="2.2"/>
<rect x="45.4" y="8.6" width="2.2" height="2.2"/>
<rect x="49.7" y="8.6" width="2.2" height="2.2"/>
<rect x="54.1" y="8.6" width="2.2" height="2.2"/>
<rect x="60.5" y="8.6" width="2.2" height="2.2"/>
<rect x="64.9" y="8.6" width="2.2" height="2.2"/>
<rect x="69.2" y="8.6" width="2.2" height="2.2"/>
<rect x="71.4" y="8.6" width="2.2" height="2.2"/>
<rect x="73.5" y="8.6" width="2.2" height="2.2"/>
<rect x="77.8" y="8.6" width="2.2" height="2.2"/>
<rect y="10.8" width="2.2" height="2.2"/>
<rect x="13" y="10.8" width="2.2" height="2.2"/>
<rect x="17.3" y="10.8" width="2.2" height="2.2"/>
<rect x="21.6" y="10.8" width="2.2" height="2.2"/>
<rect x="23.8" y="10.8" width="2.2" height="2.2"/>
<rect x="28.1" y="10.8" width="2.2" height="2.2"/>
<rect x="32.4" y="10.8" width="2.2" height="2.2"/>
<rect x="34.6" y="10.8" width="2.2" height="2.2"/>
<rect x="43.2" y="10.8" width="2.2" height="2.2"/>
<rect x="51.9" y="10.8" width="2.2" height="2.2"/>
<rect x="58.4" y="10.8" width="2.2" height="2.2"/>
<rect x="64.9" y="10.8" width="2.2" height="2.2"/>
<rect x="77.8" y="10.8" width="2.2" height="2.2"/>
<rect y="13" width="2.2" height="2.2"/>
<rect x="2.2" y="13" width="2.2" height="2.2"/>
<rect x="4.3" y="13" width="2.2" height="2.2"/>
<rect x="6.5" y="13" width="2.2" height="2.2"/>
<rect x="8.6" y="13" width="2.2" height="2.2"/>
<rect x="10.8" y="13" width="2.2" height="2.2"/>
<rect x="13" y="13" width="2.2" height="2.2"/>
<rect x="17.3" y="13" width="2.2" height="2.2"/>
<rect x="21.6" y="13" width="2.2" height="2.2"/>
<rect x="25.9" y="13" width="2.2" height="2.2"/>
<rect x="30.3" y="13" width="2.2" height="2.2"/>
<rect x="34.6" y="13" width="2.2" height="2.2"/>
<rect x="38.9" y="13" width="2.2" height="2.2"/>
<rect x="43.2" y="13" width="2.2" height="2.2"/>
<rect x="47.6" y="13" width="2.2" height="2.2"/>
<rect x="51.9" y="13" width="2.2" height="2.2"/>
<rect x="56.2" y="13" width="2.2" height="2.2"/>
<rect x="60.5" y="13" width="2.2" height="2.2"/>
<rect x="64.9" y="13" width="2.2" height="2.2"/>
<rect x="67" y="13" width="2.2" height="2.2"/>
<rect x="69.2" y="13" width="2.2" height="2.2"/>
<rect x="71.4" y="13" width="2.2" height="2.2"/>
<rect x="73.5" y="13" width="2.2" height="2.2"/>
<rect x="75.7" y="13" width="2.2" height="2.2"/>
<rect x="77.8" y="13" width="2.2" height="2.2"/>
<rect x="17.3" y="15.1" width="2.2" height="2.2"/>
<rect x="21.6" y="15.1" width="2.2" height="2.2"/>
<rect x="28.1" y="15.1" width="2.2" height="2.2"/>
<rect x="43.2" y="15.1" width="2.2" height="2.2"/>
<rect x="45.4" y="15.1" width="2.2" height="2.2"/>
<rect x="56.2" y="15.1" width="2.2" height="2.2"/>
<rect x="58.4" y="15.1" width="2.2" height="2.2"/>
<rect y="17.3" width="2.2" height="2.2"/>
<rect x="4.3" y="17.3" width="2.2" height="2.2"/>
<rect x="6.5" y="17.3" width="2.2" height="2.2"/>
<rect x="8.6" y="17.3" width="2.2" height="2.2"/>
<rect x="10.8" y="17.3" width="2.2" height="2.2"/>
<rect x="13" y="17.3" width="2.2" height="2.2"/>
<rect x="19.5" y="17.3" width="2.2" height="2.2"/>
<rect x="21.6" y="17.3" width="2.2" height="2.2"/>
<rect x="23.8" y="17.3" width="2.2" height="2.2"/>
<rect x="25.9" y="17.3" width="2.2" height="2.2"/>
<rect x="28.1" y="17.3" width="2.2" height="2.2"/>
<rect x="30.3" y="17.3" width="2.2" height="2.2"/>
<rect x="34.6" y="17.3" width="2.2" height="2.2"/>
<rect x="36.8" y="17.3" width="2.2" height="2.2"/>
<rect x="38.9" y="17.3" width="2.2" height="2.2"/>
<rect x="43.2" y="17.3" width="2.2" height="2.2"/>
<rect x="51.9" y="17.3" width="2.2" height="2.2"/>
<rect x="56.2" y="17.3" width="2.2" height="2.2"/>
<rect x="58.4" y="17.3" width="2.2" height="2.2"/>
<rect x="64.9" y="17.3" width="2.2" height="2.2"/>
<rect x="67" y="17.3" width="2.2" height="2.2"/>
<rect x="69.2" y="17.3" width="2.2" height="2.2"/>
<rect x="71.4" y="17.3" width="2.2" height="2.2"/>
<rect x="73.5" y="17.3" width="2.2" height="2.2"/>
<rect y="19.5" width="2.2" height="2.2"/>
<rect x="2.2" y="19.5" width="2.2" height="2.2"/>
<rect x="6.5" y="19.5" width="2.2" height="2.2"/>
<rect x="17.3" y="19.5" width="2.2" height="2.2"/>
<rect x="19.5" y="19.5" width="2.2" height="2.2"/>
<rect x="21.6" y="19.5" width="2.2" height="2.2"/>
<rect x="23.8" y="19.5" width="2.2" height="2.2"/>
<rect x="28.1" y="19.5" width="2.2" height="2.2"/>
<rect x="30.3" y="19.5" width="2.2" height="2.2"/>
<rect x="32.4" y="19.5" width="2.2" height="2.2"/>
<rect x="41.1" y="19.5" width="2.2" height="2.2"/>
<rect x="47.6" y="19.5" width="2.2" height="2.2"/>
<rect x="49.7" y="19.5" width="2.2" height="2.2"/>
<rect x="51.9" y="19.5" width="2.2" height="2.2"/>
<rect x="54.1" y="19.5" width="2.2" height="2.2"/>
<rect x="75.7" y="19.5" width="2.2" height="2.2"/>
<rect x="2.2" y="21.6" width="2.2" height="2.2"/>
<rect x="4.3" y="21.6" width="2.2" height="2.2"/>
<rect x="6.5" y="21.6" width="2.2" height="2.2"/>
<rect x="8.6" y="21.6" width="2.2" height="2.2"/>
<rect x="13" y="21.6" width="2.2" height="2.2"/>
<rect x="15.1" y="21.6" width="2.2" height="2.2"/>
<rect x="30.3" y="21.6" width="2.2" height="2.2"/>
<rect x="32.4" y="21.6" width="2.2" height="2.2"/>
<rect x="34.6" y="21.6" width="2.2" height="2.2"/>
<rect x="47.6" y="21.6" width="2.2" height="2.2"/>
<rect x="56.2" y="21.6" width="2.2" height="2.2"/>
<rect x="58.4" y="21.6" width="2.2" height="2.2"/>
<rect x="60.5" y="21.6" width="2.2" height="2.2"/>
<rect x="64.9" y="21.6" width="2.2" height="2.2"/>
<rect x="69.2" y="21.6" width="2.2" height="2.2"/>
<rect x="71.4" y="21.6" width="2.2" height="2.2"/>
<rect x="73.5" y="21.6" width="2.2" height="2.2"/>
<rect x="75.7" y="21.6" width="2.2" height="2.2"/>
<rect x="77.8" y="21.6" width="2.2" height="2.2"/>
<rect y="23.8" width="2.2" height="2.2"/>
<rect x="2.2" y="23.8" width="2.2" height="2.2"/>
<rect x="6.5" y="23.8" width="2.2" height="2.2"/>
<rect x="8.6" y="23.8" width="2.2" height="2.2"/>
<rect x="25.9" y="23.8" width="2.2" height="2.2"/>
<rect x="28.1" y="23.8" width="2.2" height="2.2"/>
<rect x="30.3" y="23.8" width="2.2" height="2.2"/>
<rect x="32.4" y="23.8" width="2.2" height="2.2"/>
<rect x="41.1" y="23.8" width="2.2" height="2.2"/>
<rect x="43.2" y="23.8" width="2.2" height="2.2"/>
<rect x="45.4" y="23.8" width="2.2" height="2.2"/>
<rect x="47.6" y="23.8" width="2.2" height="2.2"/>
<rect x="49.7" y="23.8" width="2.2" height="2.2"/>
<rect x="60.5" y="23.8" width="2.2" height="2.2"/>
<rect x="62.7" y="23.8" width="2.2" height="2.2"/>
<rect x="64.9" y="23.8" width="2.2" height="2.2"/>
<rect x="67" y="23.8" width="2.2" height="2.2"/>
<rect x="71.4" y="23.8" width="2.2" height="2.2"/>
<rect x="77.8" y="23.8" width="2.2" height="2.2"/>
<rect x="8.6" y="25.9" width="2.2" height="2.2"/>
<rect x="10.8" y="25.9" width="2.2" height="2.2"/>
<rect x="13" y="25.9" width="2.2" height="2.2"/>
<rect x="15.1" y="25.9" width="2.2" height="2.2"/>
<rect x="28.1" y="25.9" width="2.2" height="2.2"/>
<rect x="32.4" y="25.9" width="2.2" height="2.2"/>
<rect x="34.6" y="25.9" width="2.2" height="2.2"/>
<rect x="36.8" y="25.9" width="2.2" height="2.2"/>
<rect x="38.9" y="25.9" width="2.2" height="2.2"/>
<rect x="47.6" y="25.9" width="2.2" height="2.2"/>
<rect x="54.1" y="25.9" width="2.2" height="2.2"/>
<rect x="56.2" y="25.9" width="2.2" height="2.2"/>
<rect x="58.4" y="25.9" width="2.2" height="2.2"/>
<rect x="60.5" y="25.9" width="2.2" height="2.2"/>
<rect x="62.7" y="25.9" width="2.2" height="2.2"/>
<rect x="64.9" y="25.9" width="2.2" height="2.2"/>
<rect x="69.2" y="25.9" width="2.2" height="2.2"/>
<rect x="71.4" y="25.9" width="2.2" height="2.2"/>
<rect x="73.5" y="25.9" width="2.2" height="2.2"/>
<rect x="75.7" y="25.9" width="2.2" height="2.2"/>
<rect x="77.8" y="25.9" width="2.2" height="2.2"/>
<rect x="2.2" y="28.1" width="2.2" height="2.2"/>
<rect x="6.5" y="28.1" width="2.2" height="2.2"/>
<rect x="15.1" y="28.1" width="2.2" height="2.2"/>
<rect x="17.3" y="28.1" width="2.2" height="2.2"/>
<rect x="19.5" y="28.1" width="2.2" height="2.2"/>
<rect x="23.8" y="28.1" width="2.2" height="2.2"/>
<rect x="25.9" y="28.1" width="2.2" height="2.2"/>
<rect x="28.1" y="28.1" width="2.2" height="2.2"/>
<rect x="30.3" y="28.1" width="2.2" height="2.2"/>
<rect x="41.1" y="28.1" width="2.2" height="2.2"/>
<rect x="43.2" y="28.1" width="2.2" height="2.2"/>
<rect x="45.4" y="28.1" width="2.2" height="2.2"/>
<rect x="49.7" y="28.1" width="2.2" height="2.2"/>
<rect x="60.5" y="28.1" width="2.2" height="2.2"/>
<rect x="62.7" y="28.1" width="2.2" height="2.2"/>
<rect x="67" y="28.1" width="2.2" height="2.2"/>
<rect x="75.7" y="28.1" width="2.2" height="2.2"/>
<rect y="30.3" width="2.2" height="2.2"/>
<rect x="2.2" y="30.3" width="2.2" height="2.2"/>
<rect x="4.3" y="30.3" width="2.2" height="2.2"/>
<rect x="6.5" y="30.3" width="2.2" height="2.2"/>
<rect x="13" y="30.3" width="2.2" height="2.2"/>
<rect x="17.3" y="30.3" width="2.2" height="2.2"/>
<rect x="19.5" y="30.3" width="2.2" height="2.2"/>
<rect x="23.8" y="30.3" width="2.2" height="2.2"/>
<rect x="28.1" y="30.3" width="2.2" height="2.2"/>
<rect x="30.3" y="30.3" width="2.2" height="2.2"/>
<rect x="32.4" y="30.3" width="2.2" height="2.2"/>
<rect x="34.6" y="30.3" width="2.2" height="2.2"/>
<rect x="36.8" y="30.3" width="2.2" height="2.2"/>
<rect x="47.6" y="30.3" width="2.2" height="2.2"/>
<rect x="54.1" y="30.3" width="2.2" height="2.2"/>
<rect x="58.4" y="30.3" width="2.2" height="2.2"/>
<rect x="60.5" y="30.3" width="2.2" height="2.2"/>
<rect x="62.7" y="30.3" width="2.2" height="2.2"/>
<rect x="64.9" y="30.3" width="2.2" height="2.2"/>
<rect x="67" y="30.3" width="2.2" height="2.2"/>
<rect x="69.2" y="30.3" width="2.2" height="2.2"/>
<rect x="71.4" y="30.3" width="2.2" height="2.2"/>
<rect x="77.8" y="30.3" width="2.2" height="2.2"/>
<rect y="32.4" width="2.2" height="2.2"/>
<rect x="4.3" y="32.4" width="2.2" height="2.2"/>
<rect x="8.6" y="32.4" width="2.2" height="2.2"/>
<rect x="10.8" y="32.4" width="2.2" height="2.2"/>
<rect x="15.1" y="32.4" width="2.2" height="2.2"/>
<rect x="17.3" y="32.4" width="2.2" height="2.2"/>
<rect x="19.5" y="32.4" width="2.2" height="2.2"/>
<rect x="21.6" y="32.4" width="2.2" height="2.2"/>
<rect x="23.8" y="32.4" width="2.2" height="2.2"/>
<rect x="25.9" y="32.4" width="2.2" height="2.2"/>
<rect x="30.3" y="32.4" width="2.2" height="2.2"/>
<rect x="32.4" y="32.4" width="2.2" height="2.2"/>
<rect x="38.9" y="32.4" width="2.2" height="2.2"/>
<rect x="41.1" y="32.4" width="2.2" height="2.2"/>
<rect x="45.4" y="32.4" width="2.2" height="2.2"/>
<rect x="47.6" y="32.4" width="2.2" height="2.2"/>
<rect x="49.7" y="32.4" width="2.2" height="2.2"/>
<rect x="56.2" y="32.4" width="2.2" height="2.2"/>
<rect x="58.4" y="32.4" width="2.2" height="2.2"/>
<rect x="62.7" y="32.4" width="2.2" height="2.2"/>
<rect x="64.9" y="32.4" width="2.2" height="2.2"/>
<rect x="67" y="32.4" width="2.2" height="2.2"/>
<rect x="69.2" y="32.4" width="2.2" height="2.2"/>
<rect x="75.7" y="32.4" width="2.2" height="2.2"/>
<rect x="77.8" y="32.4" width="2.2" height="2.2"/>
<rect y="34.6" width="2.2" height="2.2"/>
<rect x="2.2" y="34.6" width="2.2" height="2.2"/>
<rect x="4.3" y="34.6" width="2.2" height="2.2"/>
<rect x="8.6" y="34.6" width="2.2" height="2.2"/>
<rect x="13" y="34.6" width="2.2" height="2.2"/>
<rect x="17.3" y="34.6" width="2.2" height="2.2"/>
<rect x="25.9" y="34.6" width="2.2" height="2.2"/>
<rect x="28.1" y="34.6" width="2.2" height="2.2"/>
<rect x="30.3" y="34.6" width="2.2" height="2.2"/>
<rect x="32.4" y="34.6" width="2.2" height="2.2"/>
<rect x="36.8" y="34.6" width="2.2" height="2.2"/>
<rect x="38.9" y="34.6" width="2.2" height="2.2"/>
<rect x="43.2" y="34.6" width="2.2" height="2.2"/>
<rect x="49.7" y="34.6" width="2.2" height="2.2"/>
<rect x="54.1" y="34.6" width="2.2" height="2.2"/>
<rect x="58.4" y="34.6" width="2.2" height="2.2"/>
<rect x="60.5" y="34.6" width="2.2" height="2.2"/>
<rect x="62.7" y="34.6" width="2.2" height="2.2"/>
<rect x="64.9" y="34.6" width="2.2" height="2.2"/>
<rect x="67" y="34.6" width="2.2" height="2.2"/>
<rect x="69.2" y="34.6" width="2.2" height="2.2"/>
<rect x="73.5" y="34.6" width="2.2" height="2.2"/>
<rect x="75.7" y="34.6" width="2.2" height="2.2"/>
<rect x="77.8" y="34.6" width="2.2" height="2.2"/>
<rect x="2.2" y="36.8" width="2.2" height="2.2"/>
<rect x="4.3" y="36.8" width="2.2" height="2.2"/>
<rect x="6.5" y="36.8" width="2.2" height="2.2"/>
<rect x="8.6" y="36.8" width="2.2" height="2.2"/>
<rect x="15.1" y="36.8" width="2.2" height="2.2"/>
<rect x="28.1" y="36.8" width="2.2" height="2.2"/>
<rect x="32.4" y="36.8" width="2.2" height="2.2"/>
<rect x="34.6" y="36.8" width="2.2" height="2.2"/>
<rect x="41.1" y="36.8" width="2.2" height="2.2"/>
<rect x="45.4" y="36.8" width="2.2" height="2.2"/>
<rect x="49.7" y="36.8" width="2.2" height="2.2"/>
<rect x="51.9" y="36.8" width="2.2" height="2.2"/>
<rect x="64.9" y="36.8" width="2.2" height="2.2"/>
<rect x="75.7" y="36.8" width="2.2" height="2.2"/>
<rect y="38.9" width="2.2" height="2.2"/>
<rect x="2.2" y="38.9" width="2.2" height="2.2"/>
<rect x="4.3" y="38.9" width="2.2" height="2.2"/>
<rect x="6.5" y="38.9" width="2.2" height="2.2"/>
<rect x="10.8" y="38.9" width="2.2" height="2.2"/>
<rect x="13" y="38.9" width="2.2" height="2.2"/>
<rect x="15.1" y="38.9" width="2.2" height="2.2"/>
<rect x="21.6" y="38.9" width="2.2" height="2.2"/>
<rect x="23.8" y="38.9" width="2.2" height="2.2"/>
<rect x="28.1" y="38.9" width="2.2" height="2.2"/>
<rect x="30.3" y="38.9" width="2.2" height="2.2"/>
<rect x="45.4" y="38.9" width="2.2" height="2.2"/>
<rect x="51.9" y="38.9" width="2.2" height="2.2"/>
<rect x="56.2" y="38.9" width="2.2" height="2.2"/>
<rect x="58.4" y="38.9" width="2.2" height="2.2"/>
<rect x="60.5" y="38.9" width="2.2" height="2.2"/>
<rect x="64.9" y="38.9" width="2.2" height="2.2"/>
<rect x="69.2" y="38.9" width="2.2" height="2.2"/>
<rect x="75.7" y="38.9" width="2.2" height="2.2"/>
<rect x="77.8" y="38.9" width="2.2" height="2.2"/>
<rect x="2.2" y="41.1" width="2.2" height="2.2"/>
<rect x="8.6" y="41.1" width="2.2" height="2.2"/>
<rect x="10.8" y="41.1" width="2.2" height="2.2"/>
<rect x="17.3" y="41.1" width="2.2" height="2.2"/>
<rect x="21.6" y="41.1" width="2.2" height="2.2"/>
<rect x="25.9" y="41.1" width="2.2" height="2.2"/>
<rect x="30.3" y="41.1" width="2.2" height="2.2"/>
<rect x="34.6" y="41.1" width="2.2" height="2.2"/>
<rect x="43.2" y="41.1" width="2.2" height="2.2"/>
<rect x="45.4" y="41.1" width="2.2" height="2.2"/>
<rect x="47.6" y="41.1" width="2.2" height="2.2"/>
<rect x="51.9" y="41.1" width="2.2" height="2.2"/>
<rect x="56.2" y="41.1" width="2.2" height="2.2"/>
<rect x="58.4" y="41.1" width="2.2" height="2.2"/>
<rect x="64.9" y="41.1" width="2.2" height="2.2"/>
<rect x="71.4" y="41.1" width="2.2" height="2.2"/>
<rect x="77.8" y="41.1" width="2.2" height="2.2"/>
<rect y="43.2" width="2.2" height="2.2"/>
<rect x="4.3" y="43.2" width="2.2" height="2.2"/>
<rect x="6.5" y="43.2" width="2.2" height="2.2"/>
<rect x="8.6" y="43.2" width="2.2" height="2.2"/>
<rect x="13" y="43.2" width="2.2" height="2.2"/>
<rect x="23.8" y="43.2" width="2.2" height="2.2"/>
<rect x="28.1" y="43.2" width="2.2" height="2.2"/>
<rect x="36.8" y="43.2" width="2.2" height="2.2"/>
<rect x="38.9" y="43.2" width="2.2" height="2.2"/>
<rect x="43.2" y="43.2" width="2.2" height="2.2"/>
<rect x="47.6" y="43.2" width="2.2" height="2.2"/>
<rect x="49.7" y="43.2" width="2.2" height="2.2"/>
<rect x="51.9" y="43.2" width="2.2" height="2.2"/>
<rect x="54.1" y="43.2" width="2.2" height="2.2"/>
<rect x="62.7" y="43.2" width="2.2" height="2.2"/>
<rect x="64.9" y="43.2" width="2.2" height="2.2"/>
<rect x="69.2" y="43.2" width="2.2" height="2.2"/>
<rect x="73.5" y="43.2" width="2.2" height="2.2"/>
<rect y="45.4" width="2.2" height="2.2"/>
<rect x="4.3" y="45.4" width="2.2" height="2.2"/>
<rect x="6.5" y="45.4" width="2.2" height="2.2"/>
<rect x="15.1" y="45.4" width="2.2" height="2.2"/>
<rect x="21.6" y="45.4" width="2.2" height="2.2"/>
<rect x="25.9" y="45.4" width="2.2" height="2.2"/>
<rect x="30.3" y="45.4" width="2.2" height="2.2"/>
<rect x="32.4" y="45.4" width="2.2" height="2.2"/>
<rect x="34.6" y="45.4" width="2.2" height="2.2"/>
<rect x="38.9" y="45.4" width="2.2" height="2.2"/>
<rect x="41.1" y="45.4" width="2.2" height="2.2"/>
<rect x="43.2" y="45.4" width="2.2" height="2.2"/>
<rect x="47.6" y="45.4" width="2.2" height="2.2"/>
<rect x="49.7" y="45.4" width="2.2" height="2.2"/>
<rect x="51.9" y="45.4" width="2.2" height="2.2"/>
<rect x="60.5" y="45.4" width="2.2" height="2.2"/>
<rect x="62.7" y="45.4" width="2.2" height="2.2"/>
<rect x="71.4" y="45.4" width="2.2" height="2.2"/>
<rect x="77.8" y="45.4" width="2.2" height="2.2"/>
<rect x="4.3" y="47.6" width="2.2" height="2.2"/>
<rect x="13" y="47.6" width="2.2" height="2.2"/>
<rect x="15.1" y="47.6" width="2.2" height="2.2"/>
<rect x="17.3" y="47.6" width="2.2" height="2.2"/>
<rect x="19.5" y="47.6" width="2.2" height="2.2"/>
<rect x="30.3" y="47.6" width="2.2" height="2.2"/>
<rect x="32.4" y="47.6" width="2.2" height="2.2"/>
<rect x="34.6" y="47.6" width="2.2" height="2.2"/>
<rect x="36.8" y="47.6" width="2.2" height="2.2"/>
<rect x="38.9" y="47.6" width="2.2" height="2.2"/>
<rect x="43.2" y="47.6" width="2.2" height="2.2"/>
<rect x="47.6" y="47.6" width="2.2" height="2.2"/>
<rect x="56.2" y="47.6" width="2.2" height="2.2"/>
<rect x="58.4" y="47.6" width="2.2" height="2.2"/>
<rect x="62.7" y="47.6" width="2.2" height="2.2"/>
<rect x="64.9" y="47.6" width="2.2" height="2.2"/>
<rect x="67" y="47.6" width="2.2" height="2.2"/>
<rect x="69.2" y="47.6" width="2.2" height="2.2"/>
<rect x="71.4" y="47.6" width="2.2" height="2.2"/>
<rect x="75.7" y="47.6" width="2.2" height="2.2"/>
<rect x="77.8" y="47.6" width="2.2" height="2.2"/>
<rect y="49.7" width="2.2" height="2.2"/>
<rect x="2.2" y="49.7" width="2.2" height="2.2"/>
<rect x="4.3" y="49.7" width="2.2" height="2.2"/>
<rect x="15.1" y="49.7" width="2.2" height="2.2"/>
<rect x="17.3" y="49.7" width="2.2" height="2.2"/>
<rect x="25.9" y="49.7" width="2.2" height="2.2"/>
<rect x="30.3" y="49.7" width="2.2" height="2.2"/>
<rect x="32.4" y="49.7" width="2.2" height="2.2"/>
<rect x="34.6" y="49.7" width="2.2" height="2.2"/>
<rect x="41.1" y="49.7" width="2.2" height="2.2"/>
<rect x="45.4" y="49.7" width="2.2" height="2.2"/>
<rect x="47.6" y="49.7" width="2.2" height="2.2"/>
<rect x="56.2" y="49.7" width="2.2" height="2.2"/>
<rect x="60.5" y="49.7" width="2.2" height="2.2"/>
<rect x="62.7" y="49.7" width="2.2" height="2.2"/>
<rect x="64.9" y="49.7" width="2.2" height="2.2"/>
<rect x="67" y="49.7" width="2.2" height="2.2"/>
<rect x="69.2" y="49.7" width="2.2" height="2.2"/>
<rect x="75.7" y="49.7" width="2.2" height="2.2"/>
<rect x="77.8" y="49.7" width="2.2" height="2.2"/>
<rect y="51.9" width="2.2" height="2.2"/>
<rect x="4.3" y="51.9" width="2.2" height="2.2"/>
<rect x="6.5" y="51.9" width="2.2" height="2.2"/>
<rect x="8.6" y="51.9" width="2.2" height="2.2"/>
<rect x="13" y="51.9" width="2.2" height="2.2"/>
<rect x="17.3" y="51.9" width="2.2" height="2.2"/>
<rect x="19.5" y="51.9" width="2.2" height="2.2"/>
<rect x="23.8" y="51.9" width="2.2" height="2.2"/>
<rect x="30.3" y="51.9" width="2.2" height="2.2"/>
<rect x="32.4" y="51.9" width="2.2" height="2.2"/>
<rect x="36.8" y="51.9" width="2.2" height="2.2"/>
<rect x="38.9" y="51.9" width="2.2" height="2.2"/>
<rect x="43.2" y="51.9" width="2.2" height="2.2"/>
<rect x="47.6" y="51.9" width="2.2" height="2.2"/>
<rect x="49.7" y="51.9" width="2.2" height="2.2"/>
<rect x="56.2" y="51.9" width="2.2" height="2.2"/>
<rect x="60.5" y="51.9" width="2.2" height="2.2"/>
<rect x="64.9" y="51.9" width="2.2" height="2.2"/>
<rect x="73.5" y="51.9" width="2.2" height="2.2"/>
<rect x="75.7" y="51.9" width="2.2" height="2.2"/>
<rect x="77.8" y="51.9" width="2.2" height="2.2"/>
<rect x="2.2" y="54.1" width="2.2" height="2.2"/>
<rect x="4.3" y="54.1" width="2.2" height="2.2"/>
<rect x="8.6" y="54.1" width="2.2" height="2.2"/>
<rect x="10.8" y="54.1" width="2.2" height="2.2"/>
<rect x="15.1" y="54.1" width="2.2" height="2.2"/>
<rect x="17.3" y="54.1" width="2.2" height="2.2"/>
<rect x="19.5" y="54.1" width="2.2" height="2.2"/>
<rect x="21.6" y="54.1" width="2.2" height="2.2"/>
<rect x="23.8" y="54.1" width="2.2" height="2.2"/>
<rect x="25.9" y="54.1" width="2.2" height="2.2"/>
<rect x="32.4" y="54.1" width="2.2" height="2.2"/>
<rect x="41.1" y="54.1" width="2.2" height="2.2"/>
<rect x="45.4" y="54.1" width="2.2" height="2.2"/>
<rect x="49.7" y="54.1" width="2.2" height="2.2"/>
<rect x="51.9" y="54.1" width="2.2" height="2.2"/>
<rect x="54.1" y="54.1" width="2.2" height="2.2"/>
<rect x="62.7" y="54.1" width="2.2" height="2.2"/>
<rect x="67" y="54.1" width="2.2" height="2.2"/>
<rect x="71.4" y="54.1" width="2.2" height="2.2"/>
<rect x="73.5" y="54.1" width="2.2" height="2.2"/>
<rect x="2.2" y="56.2" width="2.2" height="2.2"/>
<rect x="4.3" y="56.2" width="2.2" height="2.2"/>
<rect x="6.5" y="56.2" width="2.2" height="2.2"/>
<rect x="8.6" y="56.2" width="2.2" height="2.2"/>
<rect x="10.8" y="56.2" width="2.2" height="2.2"/>
<rect x="13" y="56.2" width="2.2" height="2.2"/>
<rect x="15.1" y="56.2" width="2.2" height="2.2"/>
<rect x="17.3" y="56.2" width="2.2" height="2.2"/>
<rect x="25.9" y="56.2" width="2.2" height="2.2"/>
<rect x="28.1" y="56.2" width="2.2" height="2.2"/>
<rect x="30.3" y="56.2" width="2.2" height="2.2"/>
<rect x="32.4" y="56.2" width="2.2" height="2.2"/>
<rect x="34.6" y="56.2" width="2.2" height="2.2"/>
<rect x="43.2" y="56.2" width="2.2" height="2.2"/>
<rect x="45.4" y="56.2" width="2.2" height="2.2"/>
<rect x="54.1" y="56.2" width="2.2" height="2.2"/>
<rect x="56.2" y="56.2" width="2.2" height="2.2"/>
<rect x="58.4" y="56.2" width="2.2" height="2.2"/>
<rect x="60.5" y="56.2" width="2.2" height="2.2"/>
<rect x="64.9" y="56.2" width="2.2" height="2.2"/>
<rect x="67" y="56.2" width="2.2" height="2.2"/>
<rect x="71.4" y="56.2" width="2.2" height="2.2"/>
<rect x="75.7" y="56.2" width="2.2" height="2.2"/>
<rect x="77.8" y="56.2" width="2.2" height="2.2"/>
<rect x="2.2" y="58.4" width="2.2" height="2.2"/>
<rect x="4.3" y="58.4" width="2.2" height="2.2"/>
<rect x="6.5" y="58.4" width="2.2" height="2.2"/>
<rect x="17.3" y="58.4" width="2.2" height="2.2"/>
<rect x="28.1" y="58.4" width="2.2" height="2.2"/>
<rect x="32.4" y="58.4" width="2.2" height="2.2"/>
<rect x="45.4" y="58.4" width="2.2" height="2.2"/>
<rect x="58.4" y="58.4" width="2.2" height="2.2"/>
<rect x="60.5" y="58.4" width="2.2" height="2.2"/>
<rect x="64.9" y="58.4" width="2.2" height="2.2"/>
<rect x="67" y="58.4" width="2.2" height="2.2"/>
<rect x="71.4" y="58.4" width="2.2" height="2.2"/>
<rect x="2.2" y="60.5" width="2.2" height="2.2"/>
<rect x="4.3" y="60.5" width="2.2" height="2.2"/>
<rect x="13" y="60.5" width="2.2" height="2.2"/>
<rect x="19.5" y="60.5" width="2.2" height="2.2"/>
<rect x="23.8" y="60.5" width="2.2" height="2.2"/>
<rect x="25.9" y="60.5" width="2.2" height="2.2"/>
<rect x="30.3" y="60.5" width="2.2" height="2.2"/>
<rect x="47.6" y="60.5" width="2.2" height="2.2"/>
<rect x="51.9" y="60.5" width="2.2" height="2.2"/>
<rect x="54.1" y="60.5" width="2.2" height="2.2"/>
<rect x="56.2" y="60.5" width="2.2" height="2.2"/>
<rect x="58.4" y="60.5" width="2.2" height="2.2"/>
<rect x="60.5" y="60.5" width="2.2" height="2.2"/>
<rect x="62.7" y="60.5" width="2.2" height="2.2"/>
<rect x="64.9" y="60.5" width="2.2" height="2.2"/>
<rect x="67" y="60.5" width="2.2" height="2.2"/>
<rect x="69.2" y="60.5" width="2.2" height="2.2"/>
<rect x="73.5" y="60.5" width="2.2" height="2.2"/>
<rect x="77.8" y="60.5" width="2.2" height="2.2"/>
<rect x="17.3" y="62.7" width="2.2" height="2.2"/>
<rect x="19.5" y="62.7" width="2.2" height="2.2"/>
<rect x="21.6" y="62.7" width="2.2" height="2.2"/>
<rect x="23.8" y="62.7" width="2.2" height="2.2"/>
<rect x="25.9" y="62.7" width="2.2" height="2.2"/>
<rect x="30.3" y="62.7" width="2.2" height="2.2"/>
<rect x="38.9" y="62.7" width="2.2" height="2.2"/>
<rect x="41.1" y="62.7" width="2.2" height="2.2"/>
<rect x="43.2" y="62.7" width="2.2" height="2.2"/>
<rect x="47.6" y="62.7" width="2.2" height="2.2"/>
<rect x="49.7" y="62.7" width="2.2" height="2.2"/>
<rect x="58.4" y="62.7" width="2.2" height="2.2"/>
<rect x="60.5" y="62.7" width="2.2" height="2.2"/>
<rect x="69.2" y="62.7" width="2.2" height="2.2"/>
<rect x="71.4" y="62.7" width="2.2" height="2.2"/>
<rect y="64.9" width="2.2" height="2.2"/>
<rect x="2.2" y="64.9" width="2.2" height="2.2"/>
<rect x="4.3" y="64.9" width="2.2" height="2.2"/>
<rect x="6.5" y="64.9" width="2.2" height="2.2"/>
<rect x="8.6" y="64.9" width="2.2" height="2.2"/>
<rect x="10.8" y="64.9" width="2.2" height="2.2"/>
<rect x="13" y="64.9" width="2.2" height="2.2"/>
<rect x="19.5" y="64.9" width="2.2" height="2.2"/>
<rect x="32.4" y="64.9" width="2.2" height="2.2"/>
<rect x="34.6" y="64.9" width="2.2" height="2.2"/>
<rect x="43.2" y="64.9" width="2.2" height="2.2"/>
<rect x="45.4" y="64.9" width="2.2" height="2.2"/>
<rect x="56.2" y="64.9" width="2.2" height="2.2"/>
<rect x="60.5" y="64.9" width="2.2" height="2.2"/>
<rect x="64.9" y="64.9" width="2.2" height="2.2"/>
<rect x="69.2" y="64.9" width="2.2" height="2.2"/>
<rect x="73.5" y="64.9" width="2.2" height="2.2"/>
<rect x="77.8" y="64.9" width="2.2" height="2.2"/>
<rect y="67" width="2.2" height="2.2"/>
<rect x="13" y="67" width="2.2" height="2.2"/>
<rect x="17.3" y="67" width="2.2" height="2.2"/>
<rect x="21.6" y="67" width="2.2" height="2.2"/>
<rect x="23.8" y="67" width="2.2" height="2.2"/>
<rect x="25.9" y="67" width="2.2" height="2.2"/>
<rect x="28.1" y="67" width="2.2" height="2.2"/>
<rect x="30.3" y="67" width="2.2" height="2.2"/>
<rect x="32.4" y="67" width="2.2" height="2.2"/>
<rect x="34.6" y="67" width="2.2" height="2.2"/>
<rect x="38.9" y="67" width="2.2" height="2.2"/>
<rect x="41.1" y="67" width="2.2" height="2.2"/>
<rect x="43.2" y="67" width="2.2" height="2.2"/>
<rect x="45.4" y="67" width="2.2" height="2.2"/>
<rect x="47.6" y="67" width="2.2" height="2.2"/>
<rect x="49.7" y="67" width="2.2" height="2.2"/>
<rect x="56.2" y="67" width="2.2" height="2.2"/>
<rect x="58.4" y="67" width="2.2" height="2.2"/>
<rect x="60.5" y="67" width="2.2" height="2.2"/>
<rect x="69.2" y="67" width="2.2" height="2.2"/>
<rect x="71.4" y="67" width="2.2" height="2.2"/>
<rect y="69.2" width="2.2" height="2.2"/>
<rect x="4.3" y="69.2" width="2.2" height="2.2"/>
<rect x="6.5" y="69.2" width="2.2" height="2.2"/>
<rect x="8.6" y="69.2" width="2.2" height="2.2"/>
<rect x="13" y="69.2" width="2.2" height="2.2"/>
<rect x="17.3" y="69.2" width="2.2" height="2.2"/>
<rect x="19.5" y="69.2" width="2.2" height="2.2"/>
<rect x="23.8" y="69.2" width="2.2" height="2.2"/>
<rect x="30.3" y="69.2" width="2.2" height="2.2"/>
<rect x="32.4" y="69.2" width="2.2" height="2.2"/>
<rect x="34.6" y="69.2" width="2.2" height="2.2"/>
<rect x="36.8" y="69.2" width="2.2" height="2.2"/>
<rect x="38.9" y="69.2" width="2.2" height="2.2"/>
<rect x="41.1" y="69.2" width="2.2" height="2.2"/>
<rect x="43.2" y="69.2" width="2.2" height="2.2"/>
<rect x="47.6" y="69.2" width="2.2" height="2.2"/>
<rect x="49.7" y="69.2" width="2.2" height="2.2"/>
<rect x="51.9" y="69.2" width="2.2" height="2.2"/>
<rect x="54.1" y="69.2" width="2.2" height="2.2"/>
<rect x="58.4" y="69.2" width="2.2" height="2.2"/>
<rect x="60.5" y="69.2" width="2.2" height="2.2"/>
<rect x="62.7" y="69.2" width="2.2" height="2.2"/>
<rect x="64.9" y="69.2" width="2.2" height="2.2"/>
<rect x="67" y="69.2" width="2.2" height="2.2"/>
<rect x="69.2" y="69.2" width="2.2" height="2.2"/>
<rect x="73.5" y="69.2" width="2.2" height="2.2"/>
<rect x="77.8" y="69.2" width="2.2" height="2.2"/>
<rect y="71.4" width="2.2" height="2.2"/>
<rect x="4.3" y="71.4" width="2.2" height="2.2"/>
<rect x="6.5" y="71.4" width="2.2" height="2.2"/>
<rect x="8.6" y="71.4" width="2.2" height="2.2"/>
<rect x="13" y="71.4" width="2.2" height="2.2"/>
<rect x="17.3" y="71.4" width="2.2" height="2.2"/>
<rect x="19.5" y="71.4" width="2.2" height="2.2"/>
<rect x="21.6" y="71.4" width="2.2" height="2.2"/>
<rect x="30.3" y="71.4" width="2.2" height="2.2"/>
<rect x="41.1" y="71.4" width="2.2" height="2.2"/>
<rect x="45.4" y="71.4" width="2.2" height="2.2"/>
<rect x="49.7" y="71.4" width="2.2" height="2.2"/>
<rect x="51.9" y="71.4" width="2.2" height="2.2"/>
<rect x="56.2" y="71.4" width="2.2" height="2.2"/>
<rect x="60.5" y="71.4" width="2.2" height="2.2"/>
<rect x="62.7" y="71.4" width="2.2" height="2.2"/>
<rect x="64.9" y="71.4" width="2.2" height="2.2"/>
<rect x="69.2" y="71.4" width="2.2" height="2.2"/>
<rect x="71.4" y="71.4" width="2.2" height="2.2"/>
<rect x="73.5" y="71.4" width="2.2" height="2.2"/>
<rect x="75.7" y="71.4" width="2.2" height="2.2"/>
<rect x="77.8" y="71.4" width="2.2" height="2.2"/>
<rect y="73.5" width="2.2" height="2.2"/>
<rect x="4.3" y="73.5" width="2.2" height="2.2"/>
<rect x="6.5" y="73.5" width="2.2" height="2.2"/>
<rect x="8.6" y="73.5" width="2.2" height="2.2"/>
<rect x="13" y="73.5" width="2.2" height="2.2"/>
<rect x="17.3" y="73.5" width="2.2" height="2.2"/>
<rect x="19.5" y="73.5" width="2.2" height="2.2"/>
<rect x="21.6" y="73.5" width="2.2" height="2.2"/>
<rect x="23.8" y="73.5" width="2.2" height="2.2"/>
<rect x="28.1" y="73.5" width="2.2" height="2.2"/>
<rect x="30.3" y="73.5" width="2.2" height="2.2"/>
<rect x="32.4" y="73.5" width="2.2" height="2.2"/>
<rect x="34.6" y="73.5" width="2.2" height="2.2"/>
<rect x="38.9" y="73.5" width="2.2" height="2.2"/>
<rect x="45.4" y="73.5" width="2.2" height="2.2"/>
<rect x="51.9" y="73.5" width="2.2" height="2.2"/>
<rect x="54.1" y="73.5" width="2.2" height="2.2"/>
<rect x="58.4" y="73.5" width="2.2" height="2.2"/>
<rect x="62.7" y="73.5" width="2.2" height="2.2"/>
<rect x="71.4" y="73.5" width="2.2" height="2.2"/>
<rect x="75.7" y="73.5" width="2.2" height="2.2"/>
<rect x="77.8" y="73.5" width="2.2" height="2.2"/>
<rect y="75.7" width="2.2" height="2.2"/>
<rect x="13" y="75.7" width="2.2" height="2.2"/>
<rect x="19.5" y="75.7" width="2.2" height="2.2"/>
<rect x="21.6" y="75.7" width="2.2" height="2.2"/>
<rect x="23.8" y="75.7" width="2.2" height="2.2"/>
<rect x="28.1" y="75.7" width="2.2" height="2.2"/>
<rect x="32.4" y="75.7" width="2.2" height="2.2"/>
<rect x="43.2" y="75.7" width="2.2" height="2.2"/>
<rect x="45.4" y="75.7" width="2.2" height="2.2"/>
<rect x="49.7" y="75.7" width="2.2" height="2.2"/>
<rect x="56.2" y="75.7" width="2.2" height="2.2"/>
<rect x="58.4" y="75.7" width="2.2" height="2.2"/>
<rect x="60.5" y="75.7" width="2.2" height="2.2"/>
<rect x="69.2" y="75.7" width="2.2" height="2.2"/>
<rect x="71.4" y="75.7" width="2.2" height="2.2"/>
<rect x="77.8" y="75.7" width="2.2" height="2.2"/>
<rect y="77.8" width="2.2" height="2.2"/>
<rect x="2.2" y="77.8" width="2.2" height="2.2"/>
<rect x="4.3" y="77.8" width="2.2" height="2.2"/>
<rect x="6.5" y="77.8" width="2.2" height="2.2"/>
<rect x="8.6" y="77.8" width="2.2" height="2.2"/>
<rect x="10.8" y="77.8" width="2.2" height="2.2"/>
<rect x="13" y="77.8" width="2.2" height="2.2"/>
<rect x="17.3" y="77.8" width="2.2" height="2.2"/>
<rect x="23.8" y="77.8" width="2.2" height="2.2"/>
<rect x="25.9" y="77.8" width="2.2" height="2.2"/>
<rect x="30.3" y="77.8" width="2.2" height="2.2"/>
<rect x="32.4" y="77.8" width="2.2" height="2.2"/>
<rect x="51.9" y="77.8" width="2.2" height="2.2"/>
<rect x="54.1" y="77.8" width="2.2" height="2.2"/>
<rect x="56.2" y="77.8" width="2.2" height="2.2"/>
<rect x="58.4" y="77.8" width="2.2" height="2.2"/>
<rect x="62.7" y="77.8" width="2.2" height="2.2"/>
<rect x="64.9" y="77.8" width="2.2" height="2.2"/>
<rect x="69.2" y="77.8" width="2.2" height="2.2"/>
<rect x="71.4" y="77.8" width="2.2" height="2.2"/>
<rect x="73.5" y="77.8" width="2.2" height="2.2"/>
<rect x="75.7" y="77.8" width="2.2" height="2.2"/>
<rect x="77.8" y="77.8" width="2.2" height="2.2"/>
</svg>
